…
		> ko2016$age <- 2016 - ko2016$birth + 1 
		> summary(ko2016$age)
		   Min. 1st Qu.  Median    Mean 3rd Qu.    Max. 
		   2.00   29.00   50.00   48.95   70.00  110.00 
		> boxplot(ko2016$age, col='gray88')
		> qplot(ko2016$age) + xlim(0, 110)

		************************************************************************
		* Step 3
		************************************************************************
		> ko2016 %>% filter(!is.na(reg_income)) %>% group_by(age) %>% summarise(mean_reg_income=mean(reg_income))
		# A tibble: 61 x 2
		     age mean_reg_income
		   <dbl>           <dbl>
		 1    20        1940.500
		 2    21        1461.143
		 3    22        2194.000
		 4    23        1597.923
		 5    24        1719.250
		 6    25        1768.909
		 7    26        2191.708
		 8    27        2166.725
		 9    28        2458.695
		10    29        2561.393
		# ... with 51 more rows
…
	- 사례6: 연령별/성별/상용근로자의 연봉차이는?	-> age + gender + reg_income

		************************************************************************
		* Step 3
		************************************************************************
		> ko2016 %>% filter(!is.na(reg_income)) %>% group_by(age, gender) %>% summarise(mean_reg_income=mean(reg_income))
		# A tibble: 114 x 3
		# Groups:   age [?]
		     age gender mean_reg_income
		   <dbl>  <chr>           <dbl>
		 1    20      F        2896.000
		 2    20      M         985.000
		 3    21      F        1461.143
		 4    22      F        2194.000
		 5    23      F        1675.182
		 6    23      M        1173.000
		 7    24      F        1634.647
		 8    24      M        2198.667
		 9    25      F        1711.167
		10    25      M        1922.889
		# ... with 104 more rows
…
